{
	"category" : "ClockSystem-RelationDefinition",
	"classinstvars" : [
		 ],
	"classvars" : [
		 ],
	"commentStamp" : "",
	"instvars" : [
		"isPreemptive",
		"state",
		"queue",
		"eID",
		"schedule1",
		"schedule2",
		"schedule3",
		"execute1",
		"execute2",
		"execute3",
		"block1",
		"block2",
		"block3",
		"stop1",
		"stop2",
		"stop3",
		"schedule4",
		"schedule5",
		"execute4",
		"execute5",
		"block4",
		"stop4",
		"block5",
		"stop5" ],
	"name" : "Scheduler5Tasks",
	"pools" : [
		 ],
	"super" : "ClockImplicitRelationDefinition",
	"type" : "normal" }
