{
	"class" : {
		"compositionClass" : "CiprianTeodorov 11/1/2015 19:43",
		"compositionClass:" : "CiprianTeodorov 11/1/2015 13:22",
		"defaultStrategy" : "CiprianTeodorov 11/1/2015 13:29",
		"exploreModel:" : "CiprianTeodorov 11/1/2013 19:54",
		"model:" : "CiprianTeodorov 11/1/2013 19:54" },
	"instance" : {
		"atEnd" : "CiprianTeodorov 3/31/2014 00:51",
		"automata" : "CiprianTeodorov 6/3/2014 20:49",
		"clockAssignmentsIn:transitions:" : "CiprianTeodorov 6/3/2014 21:16",
		"clocks" : "CiprianTeodorov 6/3/2014 20:49",
		"defaultSolver" : "CiprianTeodorov 6/3/2014 21:34",
		"execute:configuration:notEmptyIdx:clockStates:" : "CiprianTeodorov 5/1/2015 15:55",
		"exploreModel" : "CiprianTeodorov 6/3/2014 18:23",
		"filterClockAssignments:" : "CiprianTeodorov 6/3/2014 20:32",
		"fireable:withClocks:" : "CiprianTeodorov 6/3/2014 19:54",
		"graph" : "CiprianTeodorov 11/1/2013 19:38",
		"initialConfiguration" : "CiprianTeodorov 11/1/2013 19:39",
		"initializeExploration" : "CiprianTeodorov 5/29/2014 09:11",
		"model" : "CiprianTeodorov 11/1/2013 19:38",
		"model:" : "CiprianTeodorov 11/1/2013 19:38",
		"next" : "CiprianTeodorov 10/28/2015 22:23",
		"perform:configuration:withClocks:" : "CiprianTeodorov 6/3/2014 20:11",
		"satSolver" : "CiprianTeodorov 6/3/2014 21:15",
		"satSolver:" : "CiprianTeodorov 6/3/2014 21:06",
		"tickingClocks:" : "CiprianTeodorov 11/1/2013 19:48" } }
