{
	"category" : "RDL-Core",
	"classinstvars" : [
		 ],
	"classvars" : [
		 ],
	"commentStamp" : "",
	"instvars" : [
		"vector",
		"action" ],
	"name" : "RDLTransition",
	"pools" : [
		 ],
	"super" : "Object",
	"type" : "normal" }
