{
	"category" : "ClockSystem-RDL-Core",
	"classinstvars" : [
		 ],
	"classvars" : [
		 ],
	"commentStamp" : "",
	"instvars" : [
		 ],
	"name" : "RDLCompositeRelation",
	"pools" : [
		 ],
	"super" : "RDLRelation",
	"type" : "normal" }
