{
	"category" : "ClockSystem-Language",
	"classinstvars" : [
		 ],
	"classvars" : [
		 ],
	"commentStamp" : "",
	"instvars" : [
		"systemName",
		"clocks",
		"relations",
		"uniqueId",
		"unconstrainedClocks",
		"library" ],
	"name" : "ClockSystem",
	"pools" : [
		 ],
	"super" : "Object",
	"type" : "normal" }
