{
	"category" : "ClockSystem-Lib-Kernel",
	"classinstvars" : [
		 ],
	"classvars" : [
		 ],
	"commentStamp" : "",
	"instvars" : [
		 ],
	"name" : "ClockKernelLibrary",
	"pools" : [
		 ],
	"super" : "Object",
	"type" : "normal" }
