{
	"category" : "ClockSystem-Tristate",
	"classinstvars" : [
		"tickI",
		"notickI",
		"dontcareI" ],
	"classvars" : [
		 ],
	"commentStamp" : "",
	"instvars" : [
		 ],
	"name" : "Tristate",
	"pools" : [
		 ],
	"super" : "Object",
	"type" : "normal" }
