{
	"category" : "ClockSystem-MocOS",
	"classinstvars" : [
		 ],
	"classvars" : [
		 ],
	"commentStamp" : "",
	"instvars" : [
		"nbTasks" ],
	"name" : "SchedulerGenerator",
	"pools" : [
		 ],
	"super" : "Object",
	"type" : "normal" }
