{
	"class" : {
		 },
	"instance" : {
		"do:withState:" : "CiprianTeodorov 10/26/2015 13:43",
		"instances" : "CiprianTeodorov 10/27/2015 20:31",
		"startState" : "CiprianTeodorov 10/28/2015 19:24",
		"transitions" : "CiprianTeodorov 10/26/2015 13:43",
		"transitionsInState:" : "CiprianTeodorov 10/26/2015 13:43" } }
