{
	"category" : "ClockSystem-UI-AbstractEditor",
	"classinstvars" : [
		 ],
	"classvars" : [
		 ],
	"commentStamp" : "",
	"instvars" : [
		"menu",
		"code",
		"model" ],
	"name" : "ClockAbstractEditor",
	"pools" : [
		 ],
	"super" : "ComposableModel",
	"type" : "normal" }
